<?xml version="1.0" standalone="no"?>
<!DOCTYPE svg PUBLIC "-//W3C//DTD SVG 20010904//EN"
 "http://www.w3.org/TR/2001/REC-SVG-20010904/DTD/svg10.dtd">
<svg version="1.0" xmlns="http://www.w3.org/2000/svg"
 width="256.000000pt" height="256.000000pt" viewBox="0 0 256.000000 256.000000"
 preserveAspectRatio="xMidYMid meet">
<metadata>
Created by potrace 1.11, written by Peter Selinger 2001-2013
</metadata>
<g transform="translate(0.000000,256.000000) scale(0.100000,-0.100000)"
fill="#000000" stroke="none">
<path d="M450 1471 c-121 -203 -223 -376 -226 -385 -5 -14 11 -16 142 -16
l149 0 140 245 c77 135 142 245 145 245 3 -1 119 -192 259 -425 l254 -425 149
0 c82 0 148 4 146 9 -1 4 -151 258 -333 564 l-330 557 -137 0 -138 0 -220
-369z"/>
<path d="M1263 1730 l62 -100 508 0 c279 0 507 3 507 6 0 4 -26 49 -57 100
l-58 94 -512 0 -512 0 62 -100z"/>
<path d="M1460 1394 c0 -4 26 -51 57 -105 l58 -99 287 0 c159 0 288 2 288 5 0
2 -27 49 -61 105 l-60 100 -285 0 c-156 0 -284 -3 -284 -6z"/>
</g>
</svg>
