<svg xmlns="http://www.w3.org/2000/svg" width="112" height="112" viewBox="0 0 112 112">
  <g id="cursor" transform="translate(-1428 -832)">
    <path id="Path_1" data-name="Path 1" d="M222.856,776.516l10.571,10.571-10.571,10.571" transform="translate(1256.572 100.503)" fill="none" stroke="#fff" stroke-linecap="round" stroke-width="2"/>
    <g id="Ellipse_1" data-name="Ellipse 1" transform="translate(1428 832)" fill="none" stroke="#fff" stroke-width="1">
      <circle cx="56" cy="56" r="56" stroke="none"/>
      <circle cx="56" cy="56" r="55.5" fill="none"/>
    </g>
  </g>
</svg>
