<?xml version="1.0" encoding="utf-8"?>
<!-- Generator: Adobe Illustrator 22.0.0, SVG Export Plug-In . SVG Version: 6.00 Build 0)  -->
<svg version="1.1" id="Layer_1" xmlns="http://www.w3.org/2000/svg" xmlns:xlink="http://www.w3.org/1999/xlink" x="0px" y="0px"
	 viewBox="0 0 274 29" style="enable-background:new 0 0 274 29;" xml:space="preserve">
<style type="text/css">
	.st0{enable-background:new    ;}
	.st1{fill:#FFFFFF;}
</style>
<g class="st0">
	<path class="st1" d="M18,22l-2-3.5h-11l-2,3.5H0.2L9.3,6.7h2.4L20.8,22H18z M6,16.5h8.8l-4.4-7.5h0L6,16.5z"/>
	<path class="st1" d="M23,22V6.7h2.5v13.2h12.2V22H23z"/>
	<path class="st1" d="M40.2,22V6.7h2.5v13.2h12.2V22H40.2z"/>
	<path class="st1" d="M57.4,22V6.7H73v2h-13V13h9v2h-9v4.8h13.2V22H57.4z"/>
	<path class="st1" d="M92.9,22L81.2,11.6c-0.7-0.6-1.5-1.4-2-1.9h-0.1c0.1,1,0.1,2.4,0.1,3.4V22h-2.5V6.7h2L90.5,17
		c0.8,0.7,1.4,1.3,1.9,1.8h0.1c-0.1-0.9-0.1-2.5-0.1-3.5V6.7h2.5V22H92.9z"/>
	<path class="st1" d="M110.2,15.4V22h-2.5V6.7h15.5v2h-13v4.8h9v2H110.2z"/>
	<path class="st1" d="M129,22.1c-2.6,0-3.4-0.7-3.4-3.4V9.9c0-2.7,0.8-3.4,3.4-3.4h11.7c2.6,0,3.4,0.7,3.4,3.4v8.8
		c0,2.7-0.8,3.4-3.4,3.4H129z M141.6,9.3c0-0.6-0.2-0.7-1-0.7H129c-0.8,0-1,0.1-1,0.7v10c0,0.6,0.2,0.7,1,0.7h11.6
		c0.8,0,1-0.1,1-0.7V9.3z"/>
	<path class="st1" d="M162.8,22l-5.4-6.3h-6.8V22h-2.4V6.7H161c2.6,0,3.3,0.6,3.3,2.8v3.4c0,2.5-1.1,2.9-3.9,2.9l5.5,6.3H162.8z
		 M161.8,9.4c0-0.7-0.2-0.8-0.9-0.8h-10.3v5.1h10.3c0.8,0,0.9-0.1,0.9-0.7V9.4z"/>
	<path class="st1" d="M168.1,22V6.7h15.5v2h-13V13h9v2h-9v4.8h13.2V22H168.1z"/>
	<path class="st1" d="M203.6,22l-11.7-10.4c-0.7-0.6-1.5-1.4-2-1.9h-0.1c0.1,1,0.1,2.4,0.1,3.4V22h-2.5V6.7h2L201.2,17
		c0.8,0.7,1.4,1.3,1.9,1.8h0.1c-0.1-0.9-0.1-2.5-0.1-3.5V6.7h2.5V22H203.6z"/>
	<path class="st1" d="M209.4,22v-2.1h12.9c0.8,0,1-0.1,1-0.7v-3.3c0-0.6-0.2-0.8-1-0.8h-9.5c-2.6,0-3.4-0.7-3.4-3V9.6
		c0-2.2,0.8-2.9,3.4-2.9H225v2h-12.1c-0.8,0-1,0.1-1,0.8v2.9c0,0.6,0.2,0.7,1,0.7h9.5c2.6,0,3.4,0.6,3.4,2.9v3.2
		c0,2.3-0.9,2.9-3.4,2.9H209.4z"/>
	<path class="st1" d="M229.6,22V6.7h2.5V22H229.6z"/>
	<path class="st1" d="M239.5,22c-2.6,0-3.4-0.6-3.4-3.4v-8.6c0-2.7,0.8-3.4,3.4-3.4h12.6v2h-12.6c-0.8,0-1,0.1-1,0.7v9.7
		c0,0.6,0.2,0.7,1,0.7h12.6V22H239.5z"/>
	<path class="st1" d="M255.2,22v-2.1h12.9c0.8,0,1-0.1,1-0.7v-3.3c0-0.6-0.2-0.8-1-0.8h-9.5c-2.6,0-3.4-0.7-3.4-3V9.6
		c0-2.2,0.8-2.9,3.4-2.9h12.1v2h-12.1c-0.8,0-1,0.1-1,0.8v2.9c0,0.6,0.2,0.7,1,0.7h9.5c2.6,0,3.4,0.6,3.4,2.9v3.2
		c0,2.3-0.9,2.9-3.4,2.9H255.2z"/>
</g>
</svg>
