<svg xmlns="http://www.w3.org/2000/svg" width="25.741" height="17.938" viewBox="0 0 25.741 17.938">
  <path id="success_icon" d="M2111.785,4739.5l8.863,8.863,14.757-14.757" transform="translate(-2110.724 -4732.545)" fill="none" stroke="#1dc644" stroke-width="3"/>
</svg>
